government = monarchy
add_government_reform = autocracy_reform
government_rank = 1
technology_group = eastern
religion = catholic
primary_culture = neapolitan
capital = 4699
fixed_capital = 4699
add_accepted_culture = greek
1385.1.1 =
{monarch ={name ="Esau I"
dynasty ="de Buondelmonti"
dip =1
adm =1
mil =2
}}
1411.2.6 =
{monarch ={name ="Giorgio I"
dynasty ="de Buondelmonti"
dip =0
adm =0
mil =0
}}
1411.2.26 =
{monarch ={name ="Carlo I"
dynasty ="Tocco"
dip =4
adm =4
mil =3
}}
1429.6.4 =
{monarch ={name ="Carlo II"
dynasty ="Tocco"
dip =0
adm =1
mil =3
}}
1448.9.30 =
{monarch ={name ="Leonardo"
dynasty ="Tocco"
dip =1
adm =2
mil =3
}}
