government = tribal
add_government_reform = tribal_kingdom
government_rank = 1
technology_group = sub_saharan
religion = fraticelli
primary_culture = hausa
capital = 1149
religious_school = maliki_school
unlock_cult = nyame_cult
unlock_cult = roog_cult
unlock_cult = yemoja_cult
1430.1.1 =
{monarch ={name ="Sanau I"
dynasty ="Azna"
dip =2
adm =1
mil =2
}}
1445.1.1 =
{monarch ={name ="Muhammad Korau I"
dynasty ="Yan Korau"
dip =4
adm =3
mil =4
}}
1495.1.1 =
{monarch ={name ="Ibrahim Sura I"
dynasty ="Yan Korau"
dip =1
adm =2
mil =2
}}
1499.1.1 =
{monarch ={name ="'Ali I"
dynasty ="Yan Korau"
dip =2
adm =4
mil =2
}}
1684.1.1 =
{monarch ={name ="Muhammad Toya Rero II"
dynasty ="Yan Korau"
dip =2
adm =1
mil =2
}}
1701.1.1 =
{monarch ={name ="Muhammad Wari II"
dynasty ="Yan Korau"
dip =2
adm =1
mil =2
}}
1704.1.1 =
{monarch ={name ="Uban Yari I"
dynasty ="Yan Korau"
dip =2
adm =1
mil =2
}}
1706.1.1 =
{monarch ={name ="Karya Giwa I"
dynasty ="Yan Korau"
dip =2
adm =1
mil =2
}}
1715.1.1 =
{monarch ={name ="Jan Hazo III"
dynasty ="Yan Korau"
dip =2
adm =1
mil =2
}}
1728.1.1 =
{monarch ={name ="Tsagarana Hasana I"
dynasty ="Yan Korau"
dip =2
adm =1
mil =2
}}
1740.1.1 =
{monarch ={name ="Muhammad Kabiya Wari I"
dynasty ="Yan Korau"
dip =2
adm =1
mil =2
}}
1750.1.1 =
{monarch ={name ="Tsagarana Yahaya I"
dynasty ="Yan Korau"
dip =2
adm =1
mil =2
}}
1751.1.1 =
{monarch ={name ="Karya Giwa III"
dynasty ="Yan Korau"
dip =2
adm =1
mil =2
}}
1758.1.1 =
{monarch ={name ="Muhammad Wari III"
dynasty ="Yan Korau"
dip =2
adm =1
mil =2
}}
1767.1.1 =
{monarch ={name ="Karya Giwa IV"
dynasty ="Yan Korau"
dip =2
adm =1
mil =2
}}
1784.1.1 =
{monarch ={name ="Gida Agwaragi Mai Kere I"
dynasty ="Yan Korau"
dip =2
adm =1
mil =2
}}
1801.1.1 =
{monarch ={name ="Gwozo I"
dynasty ="Yan Korau"
dip =2
adm =1
mil =2
}}
1801.6.1 =
{monarch ={name ="Bawa I"
dynasty ="Yan Korau"
dip =2
adm =1
mil =2
}}
1804.1.1 =
{monarch ={name ="Mare Mawa Mahmud II"
dynasty ="Yan Korau"
dip =2
adm =1
mil =2
}}
1805.1.1 =
{monarch ={name ="Magajin Halidu I"
dynasty ="Yan Korau"
dip =2
adm =1
mil =2
}}
1805.6.1 =
{monarch ={name ="Malam 'Umaru Dallaji I"
dynasty ="dan 'Umaru"
dip =2
adm =1
mil =2
}}
