government = republic
add_government_reform = free_city
government_rank = 1
technology_group = western
religion = catholic
primary_culture = sardinian
capital = 127
fixed_capital = 127
1387.1.1 =
{monarch ={name ="Mariano V"
dynasty ="d'Arborea"
dip =3
mil =2
adm =3
}}
#1387.1.1 =
#{heir ={name ="Guglielmo"
#monarch_name ="Guglielmo I"
#dynasty ="d'Arborea"
#birth_date =1387.1.1
#death_date =1430.1.1
#claim =80
#dip =2
#mil =1
#adm =1
#}}
#1407.1.1 =
#{monarch ={name ="Guglielmo I"
#dynasty ="d'Arborea"
#dip =2
#mil =1
#adm =1
#}
