name = "Legacy of the Karlings"
path = "mod/Legacy of the Karlings"
normal_or_historical_nations = yes
picture="thumbnail.png"
supported_version = "1.30.*"
replace_path = "history/countries/"
replace_path = "history/provinces/"
replace_path = "history/diplomacy/"
replace_path = "common/countries/"
replace_path = "common/country_tags/"
replace_path = "common/bookmarks/"
replace_path = "common/technologies/"
