french_missions_north = {
	slot = 1
	generic = no
	ai = yes
	potential = {
		tag = FRA
		NOT = { map_setup = map_setup_random }
		NOT = { has_dlc = "Emperor" } # Maybe change or it really doesn't matter so who cares L o L dsdasdasd
	}
	has_country_shield = yes

	reconquer_normandy = {
		icon = mission_conquer_50_development
		required_missions = { }
		completed_by = 1450.1.1
		provinces_to_highlight = {
			area = normandy_area
			NOT = {
				country_or_non_sovereign_subject_holds = ROOT
			}
		}
		trigger = {
			normandy_area = {
				type = all
				country_or_non_sovereign_subject_holds = ROOT
			}
		}
		effect = {
			brittany_area = {
				limit = {
					NOT = { is_core = ROOT }
					NOT = { is_permanent_claim = ROOT }
				}
				add_permanent_claim = ROOT
			}
		}
	}
	subjugate_brittany = {
		icon = mission_have_two_subjects
		required_missions = { reconquer_normandy }
		position = 3
		completed_by = 1491.12.6
		provinces_to_highlight = {
			area = brittany_area
			NOT = {
				country_or_non_sovereign_subject_holds = ROOT
			}
		}
		trigger = {
			brittany_area = {
				type = all
				country_or_non_sovereign_subject_holds = ROOT
			}
		}
		effect = {
			champagne_area = {
				limit = {
					NOT = { is_core = ROOT }
					NOT = { is_permanent_claim = ROOT }
				}
				add_permanent_claim = ROOT
			}
			# individual provinces of picardy because calais is its own mission
			89 = {
				if = {
					limit = {
						NOT = {
							is_permanent_claim = ROOT
							is_core = ROOT
						}
					}
					add_permanent_claim = ROOT
				}
			}
			88 = {
				if = {
					limit = {
						NOT = {
							is_permanent_claim = ROOT
							is_core = ROOT
						}
					}
					add_permanent_claim = ROOT
				}
			}
			1743 = {
				if = {
					limit = {
						NOT = {
							is_permanent_claim = ROOT
							is_core = ROOT
						}
					}
					add_permanent_claim = ROOT
				}
			}
		}
	}
	conquer_picardy_fra = {
		icon = mission_assemble_an_army
		required_missions = { subjugate_brittany }
		position = 5
		completed_by = 1477.1.5
		provinces_to_highlight = {
			OR = {
				area = champagne_area
				province_id = 89
				province_id = 88
				province_id = 1743
			}
			NOT = {
				country_or_non_sovereign_subject_holds = ROOT
			}
		}
		trigger = {
			champagne_area = {
				type = all
				country_or_non_sovereign_subject_holds = ROOT
			}
			picardy_area = {
				type = all
				country_or_non_sovereign_subject_holds = ROOT
			}
			89 = {
				country_or_non_sovereign_subject_holds = ROOT
			}
			88 = {
				country_or_non_sovereign_subject_holds = ROOT
			}
			1743 = {
				country_or_non_sovereign_subject_holds = ROOT
			}
		}
		effect = {
			wallonia_area = {
				limit = {
					NOT = { is_core = ROOT }
					NOT = { is_permanent_claim = ROOT }
				}
				add_permanent_claim = ROOT
			}
			brabant_area = {
				limit = {
					NOT = { is_core = ROOT }
					NOT = { is_permanent_claim = ROOT }
				}
				add_permanent_claim = ROOT
			}
			flanders_area = {
				limit = {
					NOT = { is_core = ROOT }
					NOT = { is_permanent_claim = ROOT }
				}
				add_permanent_claim = ROOT
			}
			87 = {
				if = {
					limit = {
						NOT = {
							is_permanent_claim = ROOT
							is_core = ROOT
						}
					}
					add_permanent_claim = ROOT
				}
			}
		}
	}
	recover_calais = {
		icon = mission_galleys_in_port
		required_missions = { conquer_picardy_fra }
		completed_by = 1558.1.7
		provinces_to_highlight = {
			province_id = 87
			NOT = {
				country_or_non_sovereign_subject_holds = ROOT
			}
		}
		trigger = {
			87 = {
				country_or_non_sovereign_subject_holds = ROOT
			}
		}
		effect = {
			87 = {
				add_province_modifier = {
					name = "french_callais"
					duration = 7300
				}
			}
		}
	}
}

french_mission_slot_2 = {
	slot = 2
	generic = no
	ai = yes
	potential = {
		tag = FRA
		NOT = { map_setup = map_setup_random }
		NOT = { has_dlc = "Emperor" }
	}
	has_country_shield = yes
	
	conquer_flanders_wallonia = {
		icon = mission_cannons_firing
		required_missions = { conquer_picardy_fra }
		position = 6
		provinces_to_highlight = {
			OR = {
				area = wallonia_area
				area = brabant_area
				area = flanders_area
			}
			NOT = {
				country_or_non_sovereign_subject_holds = ROOT
			}
		}
		trigger = {
			wallonia_area = {
				type = all
				country_or_non_sovereign_subject_holds = ROOT
			}
			brabant_area = {
				type = all
				country_or_non_sovereign_subject_holds = ROOT
			}
			flanders_area = {
				type = all
				country_or_non_sovereign_subject_holds = ROOT
			}
		}
		effect = {
			wallonia_area = {
				add_province_modifier = {
					name = "faster_integration"
					duration = 7300
				}
			}
			brabant_area = {
				add_province_modifier = {
					name = "faster_integration"
					duration = 7300
				}
			}
			flanders_area = {
				add_province_modifier = {
					name = "faster_integration"
					duration = 7300
				}
			}
		}
	}
}

french_missions_colonial = {
	slot = 3
	generic = no
	ai = yes
	potential = {
		tag = FRA
		is_random_new_world = no
		NOT = { map_setup = map_setup_random }
		NOT = { has_dlc = "Emperor" }
	}
	has_country_shield = yes
	build_french_fleet = {
		icon = mission_galleys_in_port
		required_missions = { }
		completed_by = 1535.1.1
		trigger = { num_of_heavy_ship = 20 }
		effect = {
			add_country_modifier = {
				name = "naval_enthusiasm_mission"
				duration = 9125 #25 years
			}
		}
	}
	france_discovers_north_america = {
		icon = mission_establish_high_seas_navy
		required_missions = { build_french_fleet }
		completed_by = 1535.1.1
		trigger = {
			has_idea_group = exploration_ideas
			has_idea = quest_for_the_new_world
			custom_trigger_tooltip = {
				tooltip = fra_canada_discovery.tooltip
				colonial_canada = {
					has_discovered = ROOT
				}
			}
			custom_trigger_tooltip = {
				tooltip = fra_carib_discovery.tooltip
				colonial_the_carribean = {
					has_discovered = ROOT
				}
			}
			custom_trigger_tooltip = {
				tooltip = fra_louis_discovery.tooltip
				colonial_louisiana = {
					has_discovered = ROOT
				}
			}
		}
		effect = {
			add_country_modifier = {
				name = "colonial_enthusiasm"
				duration = 7300
			}
		}
	}
	french_colony_in_north_america = {
		icon = mission_colonial
		required_missions = { france_discovers_north_america }
		completed_by = 1608.7.3
		provinces_to_highlight = {
			OR = {
				colonial_region = colonial_canada
				colonial_region = colonial_louisiana
				colonial_region = colonial_the_carribean
			}
			NOT = {
				country_or_non_sovereign_subject_holds = ROOT
			}
		}
		trigger = {
			num_of_provinces_owned_or_owned_by_non_sovereign_subjects_with = {
				value = 5
				colonial_region = colonial_the_carribean
			}
			OR = {
				num_of_provinces_owned_or_owned_by_non_sovereign_subjects_with = {
					value = 5
					colonial_region = colonial_canada
				}
				num_of_provinces_owned_or_owned_by_non_sovereign_subjects_with = {
					value = 5
					colonial_region = colonial_louisiana
				}
			}
		}
		effect = {
			add_country_modifier = {
				name = "french_tariffs"
				duration = 7300
			}
		}
	}
	france_discovers_the_carribean = {
		icon = mission_sea_battles
		required_missions = { french_colony_in_north_america }
		trigger = {
			custom_trigger_tooltip = {
				tooltip = fra_bengal_discovery.tooltip
				bengal_region = {
					has_discovered = ROOT
				}
			}
			custom_trigger_tooltip = {
				tooltip = fra_coromandel_discovery.tooltip
				coromandel_region = {
					has_discovered = ROOT
				}
			}
		}
		effect = {
			add_country_modifier = {
				name = "fra_to_india"
				duration = 7300
			}
			andhra_area = {
				limit = {
					NOT = { is_core = ROOT }
					NOT = { is_permanent_claim = ROOT }
				}
				add_permanent_claim = ROOT
			}
			orissa_area = {
				limit = {
					NOT = { is_core = ROOT }
					NOT = { is_permanent_claim = ROOT }
				}
				add_permanent_claim = ROOT
			}
			north_carnatic_area = {
				limit = {
					NOT = { is_core = ROOT }
					NOT = { is_permanent_claim = ROOT }
				}
				add_permanent_claim = ROOT
			}
		}
	}
	fra_india_expansion = {
		icon = mission_trade_company_region_abroad
		required_missions = { france_discovers_the_carribean }
		provinces_to_highlight = {
			OR = {
				area = andhra_area
				area = orissa_area
				area = north_carnatic_area
			}
			NOT = {
				country_or_non_sovereign_subject_holds = ROOT
			}
		}
		trigger = {
			andhra_area = {
				type = all
				country_or_non_sovereign_subject_holds = ROOT
			}
			orissa_area = {
				type = all
				country_or_non_sovereign_subject_holds = ROOT
			}
			north_carnatic_area = {
				type = all
				country_or_non_sovereign_subject_holds = ROOT
			}
		}
		effect = {
			add_country_modifier = {
				name = "east_india_trade_rush"
				duration = 9125 #25 years
			}
			golconda_area = {
				limit = {
					NOT = { is_core = ROOT }
					NOT = { is_claim = ROOT }
				}
				add_claim = ROOT
			}
			garjat_area = {
				limit = {
					NOT = { is_core = ROOT }
					NOT = { is_claim = ROOT }
				}
				add_claim = ROOT
			}
		}
	}
	conquer_milan = {
		icon = mission_italian_condottiere
		required_missions = { annex_savoy }
		position = 7
		provinces_to_highlight = {
			area = lombardy_area
			NOT = {
				country_or_non_sovereign_subject_holds = ROOT
			}
		}
		trigger = {
			lombardy_area = {
				type = all
				country_or_non_sovereign_subject_holds = ROOT
			}
		}
		effect = {
			if = {
				limit = {
					exists = NAP
					valid_for_personal_unions_trigger = yes
					NAP = {
						valid_for_personal_unions_trigger = yes
					}
				}
				add_casus_belli = {
					type = cb_restore_personal_union
					months = 300
					target = NAP
				}
			}
			else = {
				calabria_area = {
					limit = {
						NOT = { is_core = ROOT }
						NOT = { is_permanent_claim = ROOT }
					}
					add_permanent_claim = ROOT
				}
				apulia_area = {
					limit = {
						NOT = { is_core = ROOT }
						NOT = { is_permanent_claim = ROOT }
					}
					add_permanent_claim = ROOT
				}
				naples_area = {
					limit = {
						NOT = { is_core = ROOT }
						NOT = { is_permanent_claim = ROOT }
					}
					add_permanent_claim = ROOT
				}
			}
		}
	}
	french_claim_to_naples = {
		icon = mission_monarch_in_throne_room
		required_missions = { conquer_milan }
		provinces_to_highlight = {
			OR = {
				area = calabria_area
				area = apulia_area
				area = naples_area
			}
			NOT = {
				country_or_non_sovereign_subject_holds = ROOT
			}
		}
		trigger = {
			OR = {
				NAP = {
					junior_union_with = ROOT
				}
				AND = {
					calabria_area = {
						type = all
						country_or_non_sovereign_subject_holds = ROOT
					}
					apulia_area = {
						type = all
						country_or_non_sovereign_subject_holds = ROOT
					}
					naples_area = {
						type = all
						country_or_non_sovereign_subject_holds = ROOT
					}
				}
			}
		}
		effect = {
			add_prestige = 20
			hidden_effect = {
				remove_casus_belli = {
					type = cb_restore_personal_union
					target = NAP
				}
			}
		}
	}	
}

france_expand_south = {
	slot = 5
	generic = no
	ai = yes
	potential = {
		tag = FRA
		NOT = { map_setup = map_setup_random }
		NOT = { has_dlc = "Emperor" }
	}
	has_country_shield = yes
#	reconquer_gascony = {
#		icon = mission_conquer_50_development
#		required_missions = { }
#		completed_by = 1453.7.18
#		provinces_to_highlight = {
#			OR = {
#				province_id = 174
#				province_id = 173
#				province_id = 177
#			}
#			NOT = {
#				country_or_non_sovereign_subject_holds = ROOT
#			}
#		}
#		trigger = {
#			owns_core_province = 174
#			owns_core_province = 173
#			owns_core_province = 177
#		}
#		effect = {
#			provence_area = {
#				limit = {
#					NOT = { is_core = ROOT }
#					NOT = { is_permanent_claim = ROOT }
#				}
#				add_permanent_claim = ROOT
#			}
#			loire_area = {
#				limit = {
#					NOT = { is_core = ROOT }
#					NOT = { is_permanent_claim = ROOT }
#				}
#				add_permanent_claim = ROOT
#			}
#		}
#	}
#	conquer_provence = {
#		icon = mission_cannons_firing
#		required_missions = { reconquer_gascony }
#		position = 3
#		completed_by = 1481.1.1
#		provinces_to_highlight = {
#			OR = {
#				area = provence_area
#				area = loire_area
#			}
#			NOT = {
#				country_or_non_sovereign_subject_holds = ROOT
#			}
#		}
#		trigger = {
#			provence_area = {
#				type = all
#				country_or_non_sovereign_subject_holds = ROOT
#			}
#			loire_area = {
#				type = all
#				country_or_non_sovereign_subject_holds = ROOT
#			}
#		}
#		effect = {
#			west_burgundy_area = {
#				limit = {
#					NOT = { is_core = ROOT }
#					NOT = { is_permanent_claim = ROOT }
#				}
#				add_permanent_claim = ROOT
#			}
#			bourgogne_area = {
#				limit = {
#					NOT = { is_core = ROOT }
#					NOT = { is_permanent_claim = ROOT }
#				}
#				add_permanent_claim = ROOT
#			}
#		}
#	}
	conquer_burgundy_area = {
		icon = mission_landsknecht_soldier
#		required_missions = { conquer_provence }
		position = 5
		provinces_to_highlight = {
			OR = {
				area = west_burgundy_area
				area = bourgogne_area
			}
			NOT = {
				country_or_non_sovereign_subject_holds = ROOT
			}
		}
		trigger = {
			west_burgundy_area = {
				type = all
				country_or_non_sovereign_subject_holds = ROOT
			}
			bourgogne_area = {
				type = all
				country_or_non_sovereign_subject_holds = ROOT
			}
		}
		effect = {
			lorraine_area = {
				limit = {
					NOT = { is_core = ROOT }
					NOT = { is_permanent_claim = ROOT }
				}
				add_permanent_claim = ROOT
			}
			savoy_dauphine_area = {
				limit = {
					NOT = { is_core = ROOT }
					NOT = { is_permanent_claim = ROOT }
				}
				add_permanent_claim = ROOT
			}
			piedmont_area = {
				limit = {
					NOT = { is_core = ROOT }
					NOT = { is_permanent_claim = ROOT }
				}
				add_permanent_claim = ROOT
			}
		}
	}
	subjugate_lorraine = {
		icon = mission_build_up_to_force_limit
		required_missions = { conquer_burgundy_area }
		provinces_to_highlight = {
			area = lorraine_area
			NOT = {
				country_or_non_sovereign_subject_holds = ROOT
			}
		}
		trigger = {
			lorraine_area = {
				type = all
				country_or_non_sovereign_subject_holds = ROOT
			}
		}
		effect = {
			alsace_area = {
				limit = {
					NOT = { is_core = ROOT }
					NOT = { is_permanent_claim = ROOT }
				}
				add_permanent_claim = ROOT
			}
		}
	}
	annex_alsace = {
		icon = mission_assemble_an_army
		required_missions = { subjugate_lorraine }
		provinces_to_highlight = {
			area = alsace_area
			NOT = {
				country_or_non_sovereign_subject_holds = ROOT
			}
		}
		trigger = {
			alsace_area = {
				type = all
				country_or_non_sovereign_subject_holds = ROOT
			}
		}
		effect = {
			add_country_modifier = {
				name = "fra_into_germany"
				duration = 7300
			}
		}
	}
}
france_expand_south_2 = {
	slot = 4
	generic = no
	ai = yes
	potential = {
		tag = FRA
		NOT = { has_dlc = "Emperor" }
	}
	has_country_shield = yes
	annex_savoy = {
		icon = mission_unite_home_region
		required_missions = { conquer_burgundy_area }
		position = 6
		provinces_to_highlight = {
			OR = {
				area = savoy_dauphine_area
				area = piedmont_area
			}
			NOT = {
				country_or_non_sovereign_subject_holds = ROOT
			}
		}
		trigger = {
			savoy_dauphine_area = {
				type = all
				country_or_non_sovereign_subject_holds = ROOT
			}
			piedmont_area = {
				type = all
				country_or_non_sovereign_subject_holds = ROOT
			}
		}
		effect = {
			liguria_area = {
				limit = {
					NOT = { is_core = ROOT }
					NOT = { is_permanent_claim = ROOT }
				}
				add_permanent_claim = ROOT
			}
			lombardy_area = {
				limit = {
					NOT = { is_core = ROOT }
					NOT = { is_permanent_claim = ROOT }
				}
				add_permanent_claim = ROOT
			}
			po_valley_area = {
				limit = {
					NOT = { is_core = ROOT }
					NOT = { is_permanent_claim = ROOT }
				}
				add_permanent_claim = ROOT
			}
		}
	}
	annex_genoa = {
		icon = mission_galleys_in_port
		required_missions = { annex_savoy }
		provinces_to_highlight = {
			area = liguria_area
			NOT = {
				country_or_non_sovereign_subject_holds = ROOT
			}
		}
		trigger = {
			liguria_area = {
				type = all
				country_or_non_sovereign_subject_holds = ROOT
			}
		}
		effect = {
			add_country_modifier = {
				name = "italian_ambition_modifier"
				duration = 7300
			}
		}
	}
}