# namespace = shadow_kingdom
#
#country_event = {
# 	id = shadow_kingdom.1
#	title = "hre_event.4.t"
#	desc = "hre_event.4.d"
#	picture = HRE_eventPicture
#	
#	fire_only_once = yes
#	major = yes
#	
#	trigger = {
#		is_emperor = yes
#		NOT = {
#			is_year = 1490
#		}
#		normal_or_historical_nations = yes		
#	}
#	
#	mean_time_to_happen = {
#		months = 6
#	}
#	
#	option = {
#		name = "hre_event.4.a"
#		custom_tooltip = shadow_kingdom_warning_tt
#		# see on_actions on_war_lost
#	}
#}
#
## dummy incident
#country_event = {
#	id = shadow_kingdom.2
#	title = hre_event.3.t
#	desc = shadow_kingdom.2.d
#	picture = HRE_eventPicture
#	
#	fire_only_once = yes
#	is_triggered_only = yes
#	
#	option = { # we cannot succeed, let them leave
#		ai_chance = {
#			factor = 10000
#		}
#		name = shadow_kingdom.2.a
#		add_prestige = -10
#		add_imperial_influence = -20
#		custom_tooltip = shadow_kingdom_emperor_gives_up_tt
#		set_global_flag = italians_leave_hre
#		hidden_effect = {
#			every_country = {
#				limit = {
#					is_shadow_kingdom_eligible_trigger = yes
#					OR = {
#						is_subject = no
#						overlord = {
#							is_shadow_kingdom_eligible_trigger = no
#						}
#					}
#				}
#				country_event = { id = shadow_kingdom.4 }
#			}
#		}
#		every_province = {
#			limit = {
#				is_part_of_hre = yes
#				region = iberia_region
#				owner = {
#					is_part_of_hre = no
#				}
#			}
#			set_in_empire = no
#		}
#	}
#	
#	option = { # work harder to rein them in
#		ai_chance = {
#			factor = 0
#		}
#		name = shadow_kingdom.2.b
#		set_global_flag = emperor_trying_to_avert_shadow_kingdom
#		custom_tooltip = shadow_kingdom_incident_tt
#	}
#}
#
## Time is up for the Emperor
#country_event = {
#	id = shadow_kingdom.3
#	title = shadow_kingdom.3.t
#	desc = {
#		trigger = {
#			any_country = {
#				will_leave_for_shadow_kingdom_trigger = yes
#				is_shadow_kingdom_eligible_trigger = yes
#				OR = {
#					is_subject = no
#					AND = {
#						is_subject = yes
#						overlord = {
#							NOT = {
#								is_part_of_hre = yes
#								capital_scope = { region = iberia_region }
#							}
#						}
#					}
#				}
#			}
#		}
#		desc = shadow_kingdom.3.d # emperor not completely successful
#	}
#	desc = {
#		trigger = {
#			NOT = {
#				any_country = {
#					will_leave_for_shadow_kingdom_trigger = yes
#					is_shadow_kingdom_eligible_trigger = yes
#					OR = {
#						is_subject = no
#						AND = {
#							is_subject = yes
#							overlord = { # overlord chooses for their vassals if eligible to leave themselves
#								NOT = {
#									is_part_of_hre = yes
#									capital_scope = { region = iberia_region }
#								}
#							}
#						}
#					}
#				}
#			}
#		}
#		desc = shadow_kingdom.3.d2 # emperor completely successful
#	}
#	picture = HRE_eventPicture
#	
#	fire_only_once = yes
#	major = yes
#	
#	trigger = {
#		is_emperor = yes
#		has_global_flag = emperor_trying_to_avert_shadow_kingdom
#		OR = {
#			has_country_flag = shadow_kingdom_early_success
#			is_year = 1490
#		}
#	}
#	
#	mean_time_to_happen = {
#		months = 1
#	}
#	
#	immediate = {
#		hidden_effect = {
#			set_global_flag = italians_leave_hre
#		}
#	}
#	
#	option = {
#		name = shadow_kingdom.3.a
#		trigger = {
#			any_country = {
#				will_leave_for_shadow_kingdom_trigger = yes
#				is_shadow_kingdom_eligible_trigger = yes
#				OR = {
#					is_subject = no
#					AND = {
#						is_subject = yes
#						overlord = { # overlord chooses for their vassals if eligible to leave themselves
#							NOT = {
#								is_part_of_hre = yes
#								capital_scope = { region = iberia_region }
#							}
#						}
#					}
#				}
#			}
#		}
#		custom_tooltip = shadow_kingdom_emperor_gives_up_tt
#		hidden_effect = {
#			every_country = {
#				limit = {
#					is_shadow_kingdom_eligible_trigger = yes
#					OR = {
#						is_subject = no
#						AND = {
#							is_subject = yes
#							overlord = { # overlord chooses for their vassals if eligible to leave themselves
#								NOT = {
#									is_part_of_hre = yes
#									capital_scope = { region = iberia_region }
#								}
#							}
#						}
#					}							
#				}
#				country_event = { id = shadow_kingdom.4 }
#			}
#		}
#		every_country = {
#			limit = {
#				is_shadow_kingdom_eligible_trigger = yes
#				will_leave_for_shadow_kingdom_trigger = yes
#				OR = {
#					is_subject = no
#					AND = {
#						is_subject = yes
#						overlord = { # overlord chooses for their vassals if eligible to leave themselves
#							NOT = {
#								is_part_of_hre = yes
#								capital_scope = { region = iberia_region }
#							}
#						}
#					}
#				}
#			}
#			custom_tooltip = shadow_kingdom_will_leave_info_tt
#		}
#		every_country = {
#			limit = {
#				is_shadow_kingdom_eligible_trigger = yes
#				will_leave_for_shadow_kingdom_trigger = no
#				OR = {
#					is_subject = no
#					AND = {
#						is_subject = yes
#						overlord = { # overlord chooses for their vassals if eligible to leave themselves
#							NOT = {
#								is_part_of_hre = yes
#								capital_scope = { region = iberia_region }
#							}
#						}
#					}
#				}
#			}
#			custom_tooltip = shadow_kingdom_will_stay_info_tt
#		}
#		custom_tooltip = shadow_kingdom_result_ia_tooltip
#		every_province = {
#			limit = {
#				is_part_of_hre = yes
#				region = iberia_region
#				owner = {
#					is_part_of_hre = no
#				}
#			}
#			set_in_empire = no
#		}
#	}
#	option = {
#		trigger = {
#			NOT = {
#				any_country = {
#					will_leave_for_shadow_kingdom_trigger = yes
#					is_shadow_kingdom_eligible_trigger = yes
#					OR = {
#						is_subject = no
#						AND = {
#							is_subject = yes
#							overlord = { # overlord chooses for their vassals if eligible to leave themselves
#								NOT = {
#									is_part_of_hre = yes
#									capital_scope = { region = iberia_region }
#								}
#							}
#						}
#					}
#				}
#			}
#		}
#		name = shadow_kingdom.3.b
#		add_imperial_influence = 25
#		set_global_flag = shadow_kingdom_averted
#	}
#}

## Italian country leaves or stays
#country_event = {
#	id = shadow_kingdom.4
#	title = hre_event.1.t
#	desc = {
#		trigger = {
#			has_country_flag = reined_in_for_shadow_kingdom
#		}
#		desc = shadow_kingdom.4.d2
#	}
#	desc = {
#		trigger = {
#			NOT = { has_country_flag = reined_in_for_shadow_kingdom }
#		}
#		desc = hre_event.1.d
#	}
#	picture = HRE_eventPicture
#	
#	is_triggered_only = yes
#	
#	option = { # remain
#		ai_chance = {
#			factor = 1
#			modifier = {
#				factor = 1000
#				will_leave_for_shadow_kingdom_trigger = no
#			}
#		}
#		name = hre_event.1.b
#		if = {
#			limit = {
#				has_global_flag = emperor_trying_to_avert_shadow_kingdom
#			}
#			emperor = {
#				add_imperial_influence = 5
#			}
#		}
#		if = {
#			limit = {
#				NOT = {
#					has_country_flag = reined_in_for_shadow_kingdom
#				}
#			}
#			add_prestige = -20
#			custom_tooltip = shadow_kingdom_triggered_modifier_tt
#		}
#	}
#	option = { # leave
#		ai_chance = {
#			factor = 1
#			modifier = {
#				factor = 1000
#				will_leave_for_shadow_kingdom_trigger = yes
#			}
#		}
#		trigger = {
#			NOT = {
#				has_country_flag = reined_in_for_shadow_kingdom
#			}
#		}
#		name = hre_event.1.a
#		set_in_empire = no
#		set_country_flag = permanently_left_hre_flag
#		emperor = {
#			add_opinion = {
#				who = ROOT
#				modifier = opinion_left_hre
#			}
#		}
#		if = {
#			limit = {
#				any_country = {
#					is_subject_of = ROOT
#					capital_scope = {
#						region = iberia_region
#					}
#					is_part_of_hre = yes
#				}
#			}
#			every_subject_country = {
#				limit = {
#					capital_scope = {
#						region = iberia_region
#					}
#					is_part_of_hre = yes
#				}
#				set_in_empire = no
#			}
#		}
#		if = {
#			limit = {
#				has_global_flag = emperor_trying_to_avert_shadow_kingdom
#			}
#			emperor = {
#				add_imperial_influence = -10
#			}
#		}
#	}
#}
#
## Event to fire the incident. Or the de facto incident for non-dlc owners
#country_event = {
#	id = shadow_kingdom.5
#	title = hre_event.3.t
#	desc = shadow_kingdom.2.d
#	picture = HRE_eventPicture
#	
#	fire_only_once = yes
#	major = yes
#	
#	trigger = {
#		is_emperor = yes
#		is_year = 1460
#		NOT = { has_global_flag = italians_leave_hre }
#		any_country = {
#			is_shadow_kingdom_eligible_trigger = yes
#			NOT = { has_country_flag = reined_in_for_shadow_kingdom }
#		}
#		NOT = { active_imperial_incident = any }
#	}
#	
#	mean_time_to_happen = {
#		months = 3
#	}
#	
#	option = {
#		name = shadow_kingdom.5.a
#		trigger = {
#			has_dlc = "Emperor"
#		}
#		set_imperial_incident = incident_shadow_kingdom
#	}
#	option = {
#		trigger = {
#			NOT = { has_dlc = "Emperor" }
#		}
#		ai_chance = {
#			factor = 10000
#		}
#		name = shadow_kingdom.2.a
#		add_prestige = -10
#		add_imperial_influence = -20
#		set_global_flag = italians_leave_hre
#		hidden_effect = {
#			every_country = {
#				limit = {
#					is_shadow_kingdom_eligible_trigger = yes
#					OR = {
#						is_subject = no
#						AND = {
#							is_subject = yes
#							overlord = { # overlord chooses for their vassals if eligible to leave themselves
#								NOT = {
#									is_part_of_hre = yes
#									capital_scope = { region = iberia_region }
#								}
#							}
#						}
#					}							
#				}
#				country_event = { id = shadow_kingdom.4 }
#			}
#		}
#		every_province = {
#			limit = {
#				is_part_of_hre = yes
#				region = iberia_region
#				owner = {
#					is_part_of_hre = no
#				}
#			}
#			set_in_empire = no
#		}
#	}
#	option = {
#		trigger = {
#			NOT = { has_dlc = "Emperor" }
#		}
#		ai_chance = {
#			factor = 0
#		}
#		name = shadow_kingdom.2.b
#		set_global_flag = emperor_trying_to_avert_shadow_kingdom
#		custom_tooltip = shadow_kingdom_incident_tt
#	}
#}