graphical_culture = westerngfx
color = { 127 6 2 }
monarch_names = {
	"Agathe #0" = -1
	"Aldona #0" = -1
	"Danuta #0" = -1
	"Gierolt #0" = 0
	"Heilwiva #0" = -1
	"Irmele #0" = -1
	"Isentrude #0" = -1
	"Levente #0" = 0
	"Maciej #0" = 0
	"Maria #0" = -1
	"Osterhild #0" = -1
	"Pawel #0" = 0
	"Trojden #0" = 0
	"Udalrich #0" = 0
	"Wojciech #0" = 0
}
