graphical_culture = westerngfx
color = { 40 50 40 }
monarch_names = {
	"Alberade #0" = -1
	"Folkmar #0" = 0
	"Franz #0" = 0
	"Gotthard #0" = 0
	"Guntram #0" = 0
	"Hildegard #0" = -1
	"Humbert #0" = 0
	"Mechthild #0" = -1
	"Olga #0" = -1
	"Siegmund #0" = 0
	"Wolfram #0" = 0
}
