graphical_culture = westerngfx
color = { 120 155 80 }
monarch_names = {
	"Amalie #0" = -1
	"Brunhilde #0" = -1
	"Emich #0" = 0
	"Folkmar #0" = 0
	"Gertrude #0" = -1
	"Gunhilda #0" = -1
	"Hupold #0" = 0
	"Landolf #0" = 0
	"Ruslan #0" = 0
	"Siegmund #0" = 0
	"Tura #0" = -1
	"Ulrike #0" = -1
}
