graphical_culture = westerngfx
color = { 140 13 13 }
monarch_names = {
	"Adelajda #0" = -1
	"Agnes #0" = -1
	"Aleksander #0" = 0
	"Anna #1" = -1
	"Bezprym #1" = 10
	"Binhilde #0" = -1
	"Boleslaw #2" = 10
	"Budziwuj #0" = 0
	"Dobieslaw #1" = 10
	"Dunli #0" = 0
	"Ekbert #1" = 10
	"Emma #0" = -1
	"Franz #0" = 0
	"Friedrica #0" = -1
	"Gotzelo #0" = 0
	"Helene #0" = -1
	"Isentrude #0" = -1
	"Jan #1" = 10
	"Janusz #1" = 10
	"Kantibutas #1" = 10
	"Kazimierz #1" = 10
	"Landolf #0" = 0
	"Lestek #1" = 10
	"Liutbert #0" = 0
	"Maciej #1" = 10
	"Magnus #0" = 0
	"Malgorzata #0" = -1
	"Martin #0" = 0
	"Matthias #1" = 10
	"Mieszko #2" = 10
	"Pechna #1" = -1
	"Piast #1" = 10
	"Piotr #1" = 10
	"Popiel #2" = 10
	"Poul #1" = 10
	"Povilas #1" = 10
	"Praxida #0" = -1
	"Przemyslaw #1" = 10
	"Rutger #1" = 10
	"Rycheza #0" = -1
	"Sambor #0" = 0
	"Siemomysl #1" = 10
	"Siemowit #1" = 10
	"Sivard #1" = 10
	"Svend #1" = 10
	"Swietoslawa #1" = -1
	"Virmantas #1" = 10
	"Warcislaw #1" = 10
	"Wilhelm #1" = 10
}
