graphical_culture = westerngfx
color = { 78 237 115 }
monarch_names = {
	"Adalhard #0" = 0
	"Anselm #2" = 10
	"Arnold #0" = 0
	"Brunhilde #0" = -1
	"Cecilie #1" = -1
	"Dietrich #1" = 10
	"Emelrich #1" = 10
	"Emich #0" = 0
	"Fahd #1" = 10
	"Ferdinand #0" = 0
	"Gautselin #0" = 0
	"Gunhilda #0" = -1
	"Hedwig #0" = -1
	"Henrike #1" = -1
	"Kadidu #1" = 10
	"Klementia #1" = -1
	"Liudolf #1" = 10
	"Liutbrand #1" = 10
	"Ludolf #1" = 10
	"Lutbert #1" = 10
	"Medjan #4" = 10
	"Meinhard #0" = 0
	"Munya #0" = -1
	"Nikolaus #1" = 10
	"Norbert #0" = 0
	"Philipp #1" = 10
	"Reinhold #0" = 0
	"Siegfried #0" = 0
	"Udalrich #1" = 10
	"Ursula #0" = -1
	"Wenzel #0" = 0
	"Zubeyr #1" = 10
	"al-Mansur #1" = 10
	"an-Nasir #1" = 10
}
