graphical_culture = westerngfx
color = { 149 97 97 }
monarch_names = {
	"Arunas #1" = 10
	"Bardoyas #1" = 10
	"Bretislav #1" = 10
	"Bukantas #2" = 10
	"Folkhard #0" = 0
	"Ganiklis #1" = 10
	"Gediminas #2" = 10
	"Gintautas #1" = 10
	"Ginvilas #1" = 10
	"Gonzalo #3" = 10
	"Johann #0" = 0
	"Kantibutas #1" = 10
	"Komantas #1" = 10
	"Lingvenis #1" = 10
	"Liudas #1" = 10
	"Liutpold #1" = 10
	"Mantvydas #1" = 10
	"Manvydas #1" = 10
	"Netimeras #1" = 10
	"Pergrubrius #1" = 10
	"Pukuveras #1" = 10
	"Rimantas #1" = 10
	"Ringaudas #1" = 10
	"Skirmantas #1" = 10
	"Sotvaras #2" = 10
	"Svajone #1" = -1
	"Svarnas #1" = 10
	"Tarvydas #3" = 10
	"Vingoldas #2" = 10
	"Vizgirdas #0" = 0
	"Vykintas #0" = 0
	"Vytenis #1" = 10
}
