graphical_culture = muslimgfx
color = { 250 250 180 }
monarch_names = {
	"Al-Alta #0" = -1
	"Alagh #0" = 0
	"Alchi #0" = 0
	"Ayten #0" = -1
	"Bogen #0" = 0
	"Chigu #2" = 10
	"Chiledu #0" = 0
	"Dobrinya #1" = 10
	"Ghunan #1" = 10
	"Inzhay #2" = 10
	"Kadan #0" = 0
	"Khachi #0" = 0
	"Khal #1" = 10
	"Khojin #0" = -1
	"Kichay #1" = 10
	"Kogsegu #0" = 0
	"Kya #2" = 10
	"Lysko #1" = 10
	"Malyy #3" = 10
	"Nalka #2" = 10
	"Oshypel #1" = 10
	"Pokshayka #1" = 10
	"Sarin #1" = 10
	"Setyamka #1" = 10
	"Shindyay #1" = 10
	"Shypicha #1" = 10
	"Sorkhaghatani #0" = -1
	"Torum #1" = 10
	"Tugan #1" = 10
	"Uchva #1" = 10
	"Velmayka #1" = 10
	"Virdyan #1" = 10
	"Vokan #1" = 10
	"Zarny #1" = 10
}
