graphical_culture = westerngfx
color = { 150 105 56 }
monarch_names = {
	"Aldonza #1" = -1
	"Bermudo #0" = 0
	"Guillermo #0" = 0
	"Ildégarde #0" = -1
	"Megistos #1" = 10
	"Munio #0" = 0
	"Nikarete #0" = -1
	"Paschalis #0" = 0
	"Pavlina #0" = -1
	"Radbot #0" = 0
	"Sabas #1" = 10
	"Symmachos #0" = 0
}
