graphical_culture = westerngfx
color = { 255 143 141 }
monarch_names = {
	"Alexandros #1" = 10
	"Alexeia #1" = -1
	"Alexios #1" = 10
	"Antiochos #0" = 0
	"Atrnerseh #3" = 10
	"Boethios #1" = 10
	"Boris #1" = 10
	"Daniel #1" = 10
	"Elaiodora #1" = -1
	"Eugenios #0" = 0
	"Eulalia #1" = -1
	"Germanos #0" = 0
	"Gregoras #0" = 0
	"Iakov #1" = 10
	"Ioseph #1" = 10
	"Iouliana #1" = -1
	"Isaias #2" = 10
	"Jerolim #1" = 10
	"Kyros #1" = 10
	"Matthaios #0" = 0
	"Milorad #1" = 10
	"Miroslav #1" = 10
	"Mislav #1" = 10
	"Onfroy #1" = 10
	"Pankratios #1" = 10
	"Parthena #0" = -1
	"Pavlina #0" = -1
	"Petros #1" = 10
	"Theodosia #1" = -1
	"Theodoulos #0" = 0
	"Vahram #2" = 10
	"Vrtanes #1" = 10
}
