graphical_culture = inuitgfx
color = { 180 110 80 }
monarch_names = {
	"Chumbulat #0" = 0
	"Ipek #0" = -1
	"Kolik #0" = 0
	"Krystyna #0" = -1
	"Malyy #1" = 10
	"Oshama #0" = -1
	"Paksyay #0" = 0
	"Pekshayka #0" = -1
	"Pokshayka #0" = 0
	"Poshayka #0" = -1
	"Potekay #0" = -1
	"Samatu #1" = 10
	"Sarak #1" = 10
	"Sernyava #0" = -1
	"Setyamka #1" = 10
	"Tada #0" = -1
	"Toyaksha #0" = -1
	"Vidyava #0" = -1
	"Yavlad #0" = 0
}
