graphical_culture = westerngfx
color = { 255 249 198 }
monarch_names = {
	"Abdul-Rahman #0" = 0
	"Adeodatus #2" = 10
	"Adriano #0" = 0
	"Agalina #0" = -1
	"Agapetus #2" = 10
	"Agatho #1" = 10
	"Alexander #4" = 10
	"Anacletus #1" = 10
	"Anastasius #5" = 10
	"Anicetus #1" = 10
	"Anna #0" = -1
	"Anterus #1" = 10
	"Augusta #0" = -1
	"Barend #0" = 0
	"Benedictus #10" = 10
	"Bonifatius #6" = 10
	"Caelestinus #4" = 10
	"Caius #1" = 10
	"Callistus #4" = 10
	"Clemens #2" = 10
	"Conon #1" = 10
	"Constantinus #1" = 10
	"Cornelia #0" = -1
	"Cornelius #1" = 10
	"Czcibor #0" = 0
	"Damasus #2" = 10
	"Dionysius #1" = 10
	"Donus #1" = 10
	"Eleutherius #1" = 10
	"Eugenius #2" = 10
	"Eusebius #1" = 10
	"Eutychianus #1" = 10
	"Evaristus #1" = 10
	"Fabianus #1" = 10
	"Felix #3" = 10
	"Formosus #1" = 10
	"Gelasius #1" = 10
	"Gelduin #0" = 0
	"Ginevra #0" = -1
	"Gregorius #6" = 10
	"Guidone #0" = 0
	"Hadrianus #4" = 10
	"Hilarius #1" = 10
	"Honorius #4" = 10
	"Hormisdas #1" = 10
	"Hyginus #1" = 10
	"Innocentius #2" = 10
	"Ioannes #19" = 10
	"Ippolita #0" = -1
	"Iulius #1" = 10
	"Landus #1" = 10
	"Leo #10" = 10
	"Liberius #1" = 10
	"Linus #1" = 10
	"Lucius #2" = 10
	"Marcella #0" = -1
	"Marcellinus #1" = 10
	"Marcellus #1" = 10
	"Marcus #1" = 10
	"Marinus #5" = 10
	"Martinus #3" = 10
	"Miltiades #1" = 10
	"Nasan #0" = 0
	"Nicolaus #3" = 10
	"Paschalis #1" = 10
	"Paulus #1" = 10
	"Pelagius #2" = 10
	"Petrus #1" = 10
	"Pius #1" = 10
	"Pontianus #1" = 10
	"Romanus #1" = 10
	"Sabinianus #1" = 10
	"Sergius #4" = 10
	"Settimio #0" = 0
	"Severinus #1" = 10
	"Sigismund #0" = 0
	"Silverius #1" = 10
	"Silvester #5" = 10
	"Simplicius #1" = 10
	"Siricius #1" = 10
	"Sisinnius #1" = 10
	"Sixtus #3" = 10
	"Soterius #1" = 10
	"Stephanus #12" = 10
	"Symmachus #1" = 10
	"Telesphorus #1" = 10
	"Theodorus #2" = 10
	"Tiziano #0" = 0
	"Urbanus #2" = 10
	"Valentinus #1" = 10
	"Victor #5" = 10
	"Vigilius #1" = 10
	"Vitalianus #1" = 10
	"Wido #0" = 0
	"Zacharias #1" = 10
	"Zephyrinus #1" = 10
	"Zosimus #1" = 10
}
